<?xml version="1.0" encoding="UTF-8"?>
<svg width="300" height="70.291" version="1.1" viewBox="0 0 300 70.291" xml:space="preserve" xmlns="http://www.w3.org/2000/svg">
<style type="text/css">
	.st0{fill:#666768;}
	.st1{fill:#231F20;}
</style>
<g transform="matrix(.48544 0 0 .48544 -160.68 -213.4)">
	<polygon class="st0" points="717.55 552.57 717.55 552.56 763.34 552.56 763.34 539.93 717.55 539.93 717.55 517.56 756.73 517.56 756.73 505.16 717.55 505.16 717.55 484.06 761.72 484.06 761.72 471.43 717.55 471.43 702.49 471.43 702.49 484.06 702.49 505.16 702.49 517.56 702.49 552.57"/>
	<polygon class="st0" points="450.22 486.82 450.22 507.94 450.22 541.56 450.22 554.51 461.36 554.51 464.31 554.51 464.31 469.49 450.22 469.49"/>
	<path class="st0" d="m526.12 481.15c8.49 0 16.11 3.08 22.83 9.23l8.25-10.56c-8.66-8.01-18.95-12.03-30.84-12.03-13.2 0-23.98 4.15-32.36 12.45s-12.58 18.96-12.58 32.01c0 12.95 4.17 23.51 12.51 31.69s19.11 12.27 32.32 12.27c12.95 0 23.51-3.89 31.69-11.66l-8.27-10.56c-6.47 5.9-14.21 8.86-23.18 8.86-8.99 0-16.32-2.88-21.98-8.62-5.67-5.76-8.51-13.24-8.51-22.48 0-9.06 2.79-16.44 8.38-22.09 5.59-5.67 12.84-8.51 21.74-8.51z"/>
	<polygon class="st0" points="631.41 504.83 586.97 504.83 586.97 469.49 572.88 469.49 572.88 554.51 586.97 554.51 586.97 517.71 631.41 517.71 631.41 554.51 645.62 554.51 645.62 469.49 631.41 469.49"/>
	<rect class="st0" x="668.21" y="469.49" width="14.08" height="85.01"/>
	<path class="st1" d="m860.74 528.75h21.98c9.88 0 17.43-2.89 22.66-8.68 5.22-5.79 7.83-12.85 7.83-21.19 0-8.18-2.61-15.13-7.83-20.83-5.23-5.71-12.78-8.56-22.66-8.56h-36.06v85.02h14.08zm0-46.38h21.13c5.76 0 10.03 1.63 12.82 4.92 2.79 3.28 4.18 7.3 4.18 12.08 0 4.61-1.39 8.52-4.18 11.71-2.79 3.2-7.06 4.81-12.82 4.81h-21.13z" style="fill:#fff"/>
	<path class="st1" d="m849.27 439.6v9.93h89.81v124.94h-486.73l-42.94-49.84c6.79-1.46 12.15-4.61 16.08-9.47 3.93-4.85 5.9-10.81 5.9-17.85 0-8.34-2.75-15.06-8.27-20.15-5.5-5.11-12.75-7.66-21.74-7.66h-34.6v85.01h14.32v-29.03h11.78l41.86 48.99 8.48 9.93h505.78v-144.8zm-468.16 73.13v-30.36h19.55c5.18 0 9.22 1.38 12.08 4.13 2.88 2.75 4.31 6.52 4.31 11.29 0 4.71-1.43 8.37-4.31 11-2.87 2.62-6.86 3.94-11.96 3.94z" style="fill:#fff"/>
	<path class="st1" d="m340.93 574.47v-124.94h474.39v74.86c0 6.4-1.33 11.16-4 14.27-2.68 3.12-6.76 4.68-12.27 4.68-4.94 0-9.67-1.25-14.21-3.76l-5.95 11.05c6.32 3.73 13.4 5.59 21.26 5.59 9.23 0 16.42-2.65 21.55-7.96 5.15-5.3 7.71-13.06 7.71-23.26v-85.4h-498.41v144.8h86.13l-8.48-9.93z" style="fill:#fffdfe"/>
</g>
</svg>
